…
## Count most common snowfall

``` r
ny_noaa_clean |> 
  count(snow_mm) |>
  arrange(desc(n)) 
```

    ## # A tibble: 281 × 2
    ##    snow_mm       n
    ##      <int>   <int>
    ##  1       0 2007240
    ##  2      NA  308654
    ##  3      25   30981
    ##  4      13   23082
    ##  5      51   18253
    ##  6      76   10159
    ##  7       8    9959
    ##  8       5    9742
    ##  9      38    9186
    ## 10       3    8786
    ## # ℹ 271 more rows
…
